{
    "title": "Wunschpunsch",
    "servings": 1,
    "pictureURI": "https://i.ytimg.com/vi/y3cGNhPk_vo/maxresdefault.jpg",
    "ingredients": [
        "Katz",
        "Rabe"
    ],
    "instructions": [
        "Versuchen, die Welt zu retten"
    ],
    "categories": [],
    "calorieCount": 0
}